{
  "id": "itemcollection",
  "title": "Item Containers",
  "description": "Items that can hold other items - think backpack, sack or bag of holding",
  "version": "11.0.0",
  "authors": [
    {
      "name": "tposney",
      "url": "https://gitlab.com/tposney",
      "discord": "@tposney",
      "twitter": "",
      "patreon": "",
      "github": "tposney",
      "ko-fi": "",
      "reddit": "",
      "email": ""
    }
  ],
  "type": "module",
  "socket": true,
  "includes": [
    "./assets/**",
    "./lang/**",
    "./scripts/**",
    "./styles/**",
    "./templates/**",
    "./module.json",
    "./README.md",
    "./icons/**",
    "./packs/**"
  ],
  "media": [
    {
      "type": "icon",
      "location": ""
    },
    {
      "type": "cover",
      "location": ""
    },
    {
      "type": "screenshot",
      "location": ""
    }
  ],
  "languages": [
    {
      "lang": "ar",
      "name": "Arabic",
      "path": "lang/ar.json"
    },
    {
      "lang": "en",
      "name": "English",
      "path": "lang/en.json"
    },
    {
      "lang": "ko",
      "name": "Korean",
      "path": "lang/ko.json"
    },
    {
      "lang": "fr",
      "name": "Français",
      "path": "lang/fr.json"
    },
    {
      "lang": "ja",
      "name": " 日本語",
      "path": "lang/ja.json"
    },
    {
      "lang": "pt-BR",
      "name": "Português (Brasil)",
      "path": "lang/pt-BR.json"
    },
    {
      "lang": "de",
      "name": "Deutsch",
      "path": "lang/de.json"
    }
  ],
  "scripts": [],
  "esmodules": ["ItemCollection.js"],
  "styles": ["styles/ItemCollection.css"],
  "packs": [
    {
      "name": "itemcollection-premade-bags",
      "label": "Premade Bags",
      "system": "dnd5e",
      "path": "./packs/premade-bags.db",
      "entity": "Item",
      "type": "Item",
      "module": "itemcollection",
      "lang": ["en"]
    }
  ],
  "url": "https://gitlab.com/tposney/itemcollection/tree/master",
  "readme": "https://gitlab.com/tposney/itemcollection/raw/master/README.md",
  "manifest": "https://gitlab.com/tposney/itemcollection/raw/v10/package/module.json",
  "download": "https://gitlab.com/tposney/itemcollection/raw/v10/package/itemcollection-v11.0.0.zip",
  "changelog": "https://gitlab.com/tposney/itemcollection/raw/v10/Changelog.md",
  "compatibility": {
    "minimum": 10,
    "verified": "11.302",
    "maximum": "11.999"
  },
  "relationships": {
    "requires": [
      {
        "id": "lib-wrapper",
        "type": "module"
      }
    ],
    "systems": [
      {
        "id": "dnd5e",
        "type": "system",
        "compatibility": {
          "minimum": "2.0.3",
          "verified": "2.1.2"
        }
      },
      {
        "id": "sw5e",
        "type": "system",
        "compatibility": {
          "minimum": "2.0.3",
          "verified": "2.1.2"
        }
      }
    ]
  },
  "flags": {
    "manifestPlusVersion": "1.2.0",
    "allowBugReporter": true
  }
}
